crc.vcd
$date
	Mon Apr 19 19:11:45 2021
$end

$version
	Synopsys VCS version I-2014.03-2
$end

$timescale
	10ps
$end

$comment Csum: 1 74c448e85ba551d7 $end


$scope module tbdut $end
$var reg 1 ! clk $end
$var reg 1 " reset $end
$var wire 1 # pushin $end
$var wire 9 $ datain [8:0] $end
$var wire 1 % startin $end
$var wire 1 & pushout $end
$var wire 10 ' dataout [9:0] $end
$var wire 1 ( startout $end

$scope module m $end
$var reg 1 ! clk $end
$var reg 1 " reset $end
$var reg 1 ) pushin $end
$var reg 9 * datain [8:0] $end
$var reg 1 + startin $end
$var reg 1 , pushout $end
$var reg 10 - dataout [9:0] $end
$var reg 1 . startout $end
$upscope $end


$scope module c $end
$var reg 1 / k $end
$var wire 1 0 rd $end
$var wire 1 1 k_err $end
$var wire 8 2 d8b [7:0] $end
$var reg 8 3 eb [7:0] $end
$var reg 10 4 tb [9:0] $end
$var wire 8 2 crc_in [7:0] $end
$var wire 33 5 crc_out [32:0] $end
$var wire 1 6 crc_in_valid $end
$var reg 3 7 k_count [2:0] $end
$var reg 3 8 crc_index [2:0] $end
$var reg 1 9 pushout $end
$var reg 1 : startout $end
$var reg 3 ; curr_state [2:0] $end
$var reg 3 < next_state [2:0] $end
$var reg 32 = crc_out_reg [31:0] $end

$scope module c $end
$var wire 1 > clk $end
$var wire 1 ? reset $end
$var wire 8 2 crc_in [7:0] $end
$var wire 1 6 crc_in_valid $end
$var wire 32 @ crc_out [31:0] $end
$var reg 32 A crc_table [31:0] $end
$var reg 32 B crc_reg [31:0] $end
$var wire 8 C index [7:0] $end
$upscope $end


$scope module e $end
$var wire 1 > clk $end
$var wire 1 ? reset $end
$var wire 1 / k $end
$var wire 8 3 eb [7:0] $end
$var wire 10 D tb [9:0] $end
$var wire 1 0 rd $end
$var wire 1 1 k_err $end
$var wire 5 E lbin [4:0] $end
$var wire 3 F mbin [2:0] $end
$var reg 4 G lbout [3:0] $end
$var reg 6 H mbout [5:0] $end
$var reg 10 I dataout [9:0] $end
$var reg 3 J balance [2:0] $end
$var reg 1 0 curr_state $end
$var reg 1 K next_state $end
$var reg 5 L ones [4:0] $end
$var reg 5 M ones_6b [4:0] $end
$var reg 1 N PA $end
$upscope $end

$upscope $end

$upscope $end

$enddefinitions $end

#0
$dumpvars
0N
x9
x:
x!
06
x0
0K
x/
x1
x#
x&
x"
x%
x(
b010 J
b0000000000 I
bxxx 8
b0xxxxxxxxxxxxxxxxxxxxxxxxxxxxxxxx 5
bxxxxxxxxxxxxxxxxxxxxxxxxxxxxxxxx B
b00000000000000000000000000000000 A
bxxxxxxxx 2
bxxxxxxxxx $
b0000000000 '
b0000000000 D
bxxxxxxxx 3
bxxxxxxxx C
bxxx 7
bxxxxx E
b0000 G
bxxx F
b000000 H
b00000 L
b00000 M
b0000000000 4
bxxxxxxxxxxxxxxxxxxxxxxxxxxxxxxxx @
b00000000000000000000000000000000 =
b000 ;
b000 <
x.
x,
x+
x)
b0000000000 -
bxxxxxxxxx *
$end
#500
1!
1>
1"
1?
0)
0#
0+
0%
b000000000 *
b000000000 $
b00000000 2
0/
b00000000 3
b00000 E
b000 F
bxxxxxx H
bxxxx G
01
bxxxxxxxxxx I
bxxxxxxxxxx -
bxxxxxxxxxx '
bxxxxxxxxxx 4
bxxxxxxxxxx D
bxxxxx L
bxxxxx M
09
0,
0&
0:
0.
0(
b000 7
b000 8
00
b11111111111111111111111111111111 B
b000000000000000000000000000000000 5
b00000000000000000000000000000000 @
b11111111 C
b100111 H
b1011 G
b1001111011 I
b1001111011 -
b1001111011 '
b1001111011 4
b1001111011 D
b00111 L
b00100 M
b0100 G
b1001110100 I
b1001110100 -
b1001110100 '
b1001110100 4
b1001110100 D
b00101 L
#1000
0!
0>
#1500
1!
1>
#2000
0!
0>
#2500
0"
0?
1)
1#
1+
1%
b100111100 *
b100111100 $
b00111100 2
b11000011 C
1!
1>
b00000010011011011001001100001010 A
b001 <
1/
b00111100 3
b11100 E
b001 F
b001111 H
b1001 G
01
b0011111001 I
b0011111001 -
b0011111001 '
b0011111001 4
b0011111001 D
b00110 L
b001 J
1K
19
1,
1&
1:
1.
1(
b001 7
b001 ;
#3000
0!
0>
#3500
0+
0%
1!
1>
0:
0.
0(
b010 7
10
b110000 H
b0110 G
b1100000110 I
b1100000110 -
b1100000110 '
b1100000110 4
b1100000110 D
b00100 L
b00010 M
b100 J
0K
#4000
0!
0>
#4500
1!
1>
b011 7
00
b001111 H
b1001 G
b0011111001 I
b0011111001 -
b0011111001 '
b0011111001 4
b0011111001 D
b00110 L
b00100 M
b001 J
1K
#5000
0!
0>
#5500
1!
1>
b100 7
10
b010 <
16
b110000 H
b0110 G
b1100000110 I
b1100000110 -
b1100000110 '
b1100000110 4
b1100000110 D
b00100 L
b00010 M
b100 J
0K
#6000
0!
0>
#6500
b000001010 *
b000001010 $
b00001010 2
b11110101 C
1!
1>
0/
b00001010 3
b01010 E
b000 F
b11001101110101110000011010010011 A
b010101 H
b1011 G
b0101011011 I
b0101011011 -
b0101011011 '
b0101011011 4
b0101011011 D
b00110 L
b00011 M
b001 J
b0100 G
1K
b0101010100 I
b0101010100 -
b0101010100 '
b0101010100 4
b0101010100 D
b00100 L
b100 J
0K
b000 7
b010 ;
00
b11001101001010001111100101101100 B
b000110010110101110000011010010011 5
b00110010110101110000011010010011 @
b01100110 C
b1011 G
b10100100110100011100010001101101 A
b0101011011 I
b0101011011 -
b0101011011 '
b0101011011 4
b0101011011 D
b00110 L
b001 J
1K
#7000
0!
0>
#7500
b000001100 *
b000001100 $
b00001100 2
b01100000 C
1!
1>
b00001100 3
b01100 E
b01001101101100100110000101011000 A
b001101 H
b0011011011 I
b0011011011 -
b0011011011 '
b0011011011 4
b0011011011 D
b00110010110101110000011010010011 =
10
b01001101011111110100100110100001 B
b010110010100000001011011001011110 5
b10110010100000001011011001011110 @
b10101101 C
b0100 G
b10101000011001111101111101010101 A
b0011010100 I
b0011010100 -
b0011010100 '
b0011010100 4
b0011010100 D
b00100 L
b100 J
0K
#8000
0!
0>
#8500
b000001110 *
b000001110 $
b00001110 2
b10101111 C
1!
1>
b00001110 3
b01110 E
b01000110011010011011111001111001 A
1N
b011100 H
b0111000100 I
b0111000100 -
b0111000100 '
b0111000100 4
b0111000100 D
b10110010100000001011011001011110 =
00
b01000110001001001100000100110000 B
b010111001110110110011111011001111 5
b10111001110110110011111011001111 @
b00111110 C
0N
b1011 G
b11000001011000010001110110101011 A
b0111001011 I
b0111001011 -
b0111001011 '
b0111001011 4
b0111001011 D
b00110 L
b001 J
1K
#9000
0!
0>
#9500
b000010000 *
b000010000 $
b00010000 2
b00100000 C
1!
1>
b00010000 3
b10000 E
b00111011011011100010000011001000 A
b011011 H
b0110111011 I
b0110111011 -
b0110111011 '
b0110111011 4
b0110111011 D
b00111 L
b00100 M
b010 J
b0100 G
0K
b0110110100 I
b0110110100 -
b0110110100 '
b0110110100 4
b0110110100 D
b00101 L
b10111001110110110011111011001111 =
10
b00111011001010000000010000001001 B
b011000100110101111111101111110110 5
b11000100110101111111101111110110 @
b00011001 C
b100100 H
b1011 G
1K
b01100100011010111010100011000000 A
b1001001011 I
b1001001011 -
b1001001011 '
b1001001011 4
b1001001011 D
b00010 M
#10000
0!
0>
#10500
b000010010 *
b000010010 $
b00010010 2
b00011011 C
1!
1>
b00010010 3
b10010 E
b10001010011001011100100111101100 A
b010011 H
b0100111011 I
b0100111011 -
b0100111011 '
b0100111011 4
b0100111011 D
b00110 L
b00011 M
b001 J
b0100 G
b0100110100 I
b0100110100 -
b0100110100 '
b0100110100 4
b0100110100 D
b00100 L
b100 J
0K
b11000100110101111111101111110110 =
b10001010010111101110000111101000 B
b001110101101000010001111000010111 5
b01110101101000010001111000010111 @
b11111010 C
b01011101011010000001101100000010 A
#11000
0!
0>
#11500
b000010100 *
b000010100 $
b00010100 2
b11111100 C
1!
1>
b00010100 3
b10100 E
b10110100000010111011111000110111 A
b001011 H
b0010110100 I
b0010110100 -
b0010110100 '
b0010110100 4
b0010110100 D
b01110101101000010001111000010111 =
00
b10110100100000011110000011010110 B
b001001011011111100001111100101001 5
b01001011011111100001111100101001 @
b11000010 C
1N
b1011 G
b01110101011010101010001110011100 A
b0010111011 I
b0010111011 -
b0010111011 '
b0010111011 4
b0010111011 D
b00110 L
b001 J
1K
#12000
0!
0>
#12500
b000010110 *
b000010110 $
b00010110 2
b11000000 C
1!
1>
b00010110 3
b10110 E
b10011011011001001100001010110000 A
0N
b011010 H
b0110101011 I
b0110101011 -
b0110101011 '
b0110101011 4
b0110101011 D
b01001011011111100001111100101001 =
10
b10011011110100000100001101010000 B
b001100100001011111011110010101111 5
b01100100001011111011110010101111 @
b01000110 C
b0100 G
b10011111101111111110010010100101 A
b0110100100 I
b0110100100 -
b0110100100 '
b0110100100 4
b0110100100 D
b00100 L
b100 J
0K
#13000
0!
0>
#13500
b000011000 *
b000011000 $
b00011000 2
b01001000 C
1!
1>
b00011000 3
b11000 E
b01111000000001111100100110100010 A
b001100 H
b0011000100 I
b0011000100 -
b0011000100 '
b0011000100 4
b0011000100 D
b00011 L
b00010 M
b010 J
b1011 G
1K
b0011001011 I
b0011001011 -
b0011001011 '
b0011001011 4
b0011001011 D
b00101 L
b01100100001011111011110010101111 =
00
b01111000100111000001100111100001 B
b010000111011000111110011000011110 5
b10000111011000111110011000011110 @
b11111001 C
b110011 H
b0100 G
0K
b11000100011000010100101010111000 A
b1100110100 I
b1100110100 -
b1100110100 '
b1100110100 4
b1100110100 D
b00100 M
#14000
0!
0>
#14500
b110111100 *
b110111100 $
b10111100 2
b01011101 C
1!
1>
1/
b10111100 3
b11100 E
b101 F
b011 <
06
b00010101110110100010110101001001 A
b001111 H
b1010 G
01
b0011111010 I
b0011111010 -
b0011111010 '
b0011111010 4
b0011111010 D
b00110 L
b001 J
1K
b10000111011000111110011000011110 =
b011 ;
b11111111111111111111111111111111 B
b000000000000000000000000000000000 5
b00000000000000000000000000000000 @
b01000011 C
b11110111 3
b10111 E
b111 F
b100 <
b11101111110101010001000000101010 A
b111010 H
b1000 G
b1110101000 I
b1110101000 -
b1110101000 '
b1110101000 4
b1110101000 D
b00101 L
b010 J
0K
#15000
0!
0>
#15500
0)
0#
b000000000 *
b000000000 $
b00000000 2
b11111111 C
1!
1>
0/
b00101101000000101110111110001101 A
b0001 G
b1110100001 I
b1110100001 -
b1110100001 '
b1110100001 4
b1110100001 D
b100 ;
b00011110 3
b11110 E
b000 F
b011110 H
b0100 G
b0111100100 I
b0111100100 -
b0111100100 '
b0111100100 4
b0111100100 D
#16000
0!
0>
#16500
1!
1>
b001 8
b11100110 3
b00110 E
b111 F
b011001 H
b0001 G
b0110010001 I
b0110010001 -
b0110010001 '
b0110010001 4
b0110010001 D
b00100 L
b00011 M
b100 J
b1110 G
b0110011110 I
b0110011110 -
b0110011110 '
b0110011110 4
b0110011110 D
b00110 L
b001 J
1K
#17000
0!
0>
#17500
1!
1>
b010 8
10
b01100011 3
b00011 E
b011 F
b110001 H
b0011 G
b1100010011 I
b1100010011 -
b1100010011 '
b1100010011 4
b1100010011 D
b00101 L
b010 J
#18000
0!
0>
#18500
1!
1>
b011 8
b10000111 3
b00111 E
b100 F
b101 <
b000111 H
b0010 G
b0001110010 I
b0001110010 -
b0001110010 '
b0001110010 4
b0001110010 D
b00100 L
b100 J
0K
#19000
0!
0>
#19500
1!
1>
b100 8
b101 ;
00
b10111100 3
b11100 E
b101 F
b000 <
1/
b001111 H
b1010 G
b0011111010 I
b0011111010 -
b0011111010 '
b0011111010 4
b0011111010 D
b00110 L
b00100 M
b001 J
1K
#20000
0!
0>
#20500
1!
1>
09
0,
0&
b000 8
b000 ;
10
b00000000 3
b00000 E
b000 F
0/
b011000 H
b1011 G
01
b0110001011 I
b0110001011 -
b0110001011 '
b0110001011 4
b0110001011 D
b00101 L
b00010 M
b010 J
